   0  104: [APPLICATION 2] {
   2    4:   [APPLICATION 8] B4 95 D9 99
   8   30:   [APPLICATION 11] {
  10   28:     EXTERNAL {
  12    7:       OBJECT IDENTIFIER '0 0 17 773 1 1 1'
  21   17:       [0] {
  23   15:         [APPLICATION 0] {
  25    2:           [0] 07 80
  29    9:           [1] {
  31    7:             OBJECT IDENTIFIER '0 4 0 0 1 0 21 3'
         :             }
         :           }
         :         }
         :       }
         :     }
  40   64:   [APPLICATION 12] {
  42   62:     [1] {
  44    1:       INTEGER 0
  47    1:       INTEGER 46
  50   54:       SEQUENCE {
  52    7:         [4] 91 83 76 00 00 62 F0
  61    7:         [2] 91 83 76 50 60 05 F9
  70   24:         OCTET STRING
         :           35 18 0B 91 83 95 48 76 44 F2 00 00 FF 0B D4 F2
         :           9C 0E 82 BF E5 F5 75 18
  96    8:         OCTET STRING 92 73 00 02 80 16 16 F3
         :         }
         :       }
         :     }
         :   }
